waveforms/colorshield_interface.vcd
$version Generated by VerilatedVcd $end
$timescale 1s $end
 $scope module TOP $end
  $var wire 1 W clk $end
  $var wire 1 X rst_n $end
  $var wire 8 Y channel [7:0] $end
  $var wire 1 Z s_sda $end
  $var wire 1 [ s_clk $end
  $var wire 1 \ s_rst $end
  $var wire 1 ] lat $end
  $var wire 1 ^ sb $end
  $scope module colorshield_interface $end
   $var wire 1 W clk $end
   $var wire 1 X rst_n $end
   $var wire 8 Y channel [7:0] $end
   $var wire 1 Z s_sda $end
   $var wire 1 [ s_clk $end
   $var wire 1 \ s_rst $end
   $var wire 1 ] lat $end
   $var wire 1 ^ sb $end
   $var wire 4 _ N_RST_WAIT [3:0] $end
   $var wire 32 ` N_GAMMA [31:0] $end
   $var wire 32 a N_PIXEL [31:0] $end
   $var wire 6 b RED_GAMMA [5:0] $end
   $var wire 6 b GREEN_GAMMA [5:0] $end
   $var wire 6 b BLUE_GAMMA [5:0] $end
   $var wire 4 # n_rst_cycles [3:0] $end
   $var wire 1 $ s_rst_int $end
   $var wire 1 % rst_done $end
   $var wire 1 & sb_int $end
   $var wire 1 ' sb_next $end
   $var wire 144 c g_data [143:0] $end
   $var wire 192 h p_data [191:0] $end
   $var wire 1 ( g_done $end
   $var wire 1 ) g_done_n $end
   $var wire 1 * should_transmit $end
   $var wire 1 + g_latch $end
   $var wire 1 , p_latch $end
   $var wire 1 - g_clk $end
   $var wire 1 . p_clk $end
   $var wire 1 / g_sda $end
   $var wire 1 0 p_sda $end
   $scope module tpu $end
    $var wire 32 a N [31:0] $end
    $var wire 1 W clk $end
    $var wire 1 X rst_n $end
    $var wire 192 h data [191:0] $end
    $var wire 1 ( run $end
    $var wire 1 . s_clk $end
    $var wire 1 0 s_sda $end
    $var wire 1 , latch $end
    $var wire 32 n N_BIT [31:0] $end
    $var wire 2 o N_CLK_HALF_PERIOD [1:0] $end
    $var wire 3 p CHECK [2:0] $end
    $var wire 3 q INIT [2:0] $end
    $var wire 3 r TRANS [2:0] $end
    $var wire 3 s DNCLK [2:0] $end
    $var wire 3 t UPCLK [2:0] $end
    $var wire 9 1 bit_count [8:0] $end
    $var wire 9 2 bit_count_next [8:0] $end
    $var wire 192 3 data_int [191:0] $end
    $var wire 192 9 data_next [191:0] $end
    $var wire 3 ? state [2:0] $end
    $var wire 3 @ state_next [2:0] $end
    $var wire 2 A clk_wait [1:0] $end
    $var wire 2 B clk_wait_next [1:0] $end
    $var wire 1 . s_clk_int $end
    $var wire 1 C s_clk_next $end
    $var wire 1 0 s_sda_int $end
    $var wire 1 D s_sda_next $end
   $upscope $end
   $scope module txu $end
    $var wire 32 ` N [31:0] $end
    $var wire 1 W clk $end
    $var wire 1 X rst_n $end
    $var wire 144 c data [143:0] $end
    $var wire 1 * run $end
    $var wire 1 - s_clk $end
    $var wire 1 / s_sda $end
    $var wire 1 + latch $end
    $var wire 32 n N_BIT [31:0] $end
    $var wire 2 o N_CLK_HALF_PERIOD [1:0] $end
    $var wire 3 p CHECK [2:0] $end
    $var wire 3 q INIT [2:0] $end
    $var wire 3 r TRANS [2:0] $end
    $var wire 3 s DNCLK [2:0] $end
    $var wire 3 t UPCLK [2:0] $end
    $var wire 9 E bit_count [8:0] $end
    $var wire 9 F bit_count_next [8:0] $end
    $var wire 144 G data_int [143:0] $end
    $var wire 144 L data_next [143:0] $end
    $var wire 3 Q state [2:0] $end
    $var wire 3 R state_next [2:0] $end
    $var wire 2 S clk_wait [1:0] $end
    $var wire 2 T clk_wait_next [1:0] $end
    $var wire 1 - s_clk_int $end
    $var wire 1 U s_clk_next $end
    $var wire 1 / s_sda_int $end
    $var wire 1 V s_sda_next $end
   $upscope $end
  $upscope $end
 $upscope $end
$enddefinitions $end


#0
b0000 #
0$
0%
0&
0'
0(
1)
0*
1+
1,
0-
0.
0/
00
b000000000 1
b000000000 2
b000000000000000000000000000000000000000000000000000000000000000000000000000000000000000000000000000000000000000000000000000000000000000000000000000000000000000000000000000000000000000000000000 3
b000000000000000000000000000000000000000000000000000000000000000000000000000000000000000000000000000000000000000000000000000000000000000000000000000000000000000000000000000000000000000000000000 9
b000 ?
b100 @
b00 A
b00 B
0C
0D
b000000000 E
b000000000 F
b000000000000000000000000000000000000000000000000000000000000000000000000000000000000000000000000000000000000000000000000000000000000000000000000 G
b000000000000000000000000000000000000000000000000000000000000000000000000000000000000000000000000000000000000000000000000000000000000000000000000 L
b000 Q
b100 R
b00 S
b00 T
0U
0V
0W
0X
b00000001 Y
0Z
0[
0\
1]
0^
b1000 _
b00000000000000000000000010010000 `
b00000000000000000000000011000000 a
b111111 b
b111111111111111111111111111111111111111111111111111111111111111111111111111111111111111111111111111111111111111111111111111111111111111111111111 c
b000000000000000000000000000000000000000000000000000000000000000000000000000000000000000000000000000000000000000000000000000000000000000000000000000000000000000000000000000000000000000000000000 h
b00000000000000000000000000001000 n
b10 o
b000 p
b100 q
b001 r
b010 s
b011 t
#2
b1000 #
0)
0+
0,
b100 ?
b100 Q
1W
0]
#7
0W
#10
1W
#15
0W
#20
1W
#25
0W
#30
1W
#35
0W
#40
1W
#45
0W
#50
1W
#55
0W
#58
1X
#60
b0111 #
1W
#65
0W
#70
b0110 #
1W
#75
0W
#80
b0101 #
1W
#85
0W
#90
b0100 #
1W
#95
0W
#100
b0011 #
1W
#105
0W
#110
b0010 #
1W
#115
0W
#120
b0001 #
1W
#125
0W
#130
b0000 #
1W
#135
0W
#140
1$
1W
1\
#145
0W
#150
1%
1*
b010010000 F
b111111111111111111111111111111111111111111111111111111111111111111111111111111111111111111111111111111111111111111111111111111111111111111111111 L
b000 R
1W
#155
0W
#160
b010010000 E
b111111111111111111111111111111111111111111111111111111111111111111111111111111111111111111111111111111111111111111111111111111111111111111111111 G
b000 Q
b001 R
1W
#165
0W
#170
b010001111 F
b111111111111111111111111111111111111111111111111111111111111111111111111111111111111111111111111111111111111111111111111111111111111111111111110 L
b001 Q
b010 R
b10 T
1V
1W
#175
0W
#180
1/
b010001111 E
b111111111111111111111111111111111111111111111111111111111111111111111111111111111111111111111111111111111111111111111111111111111111111111111110 G
b010 Q
b10 S
b01 T
1W
1Z
#185
0W
#190
b01 S
b00 T
1W
#195
0W
#200
b011 R
b00 S
b10 T
1U
1W
#205
0W
#210
1-
b011 Q
b10 S
b01 T
1W
1[
#215
0W
#220
b01 S
b00 T
1W
#225
0W
#230
b000 R
b00 S
0U
0V
1W
#235
0W
#240
0-
0/
b000 Q
b001 R
1W
0Z
0[
#245
0W
#250
b010001110 F
b111111111111111111111111111111111111111111111111111111111111111111111111111111111111111111111111111111111111111111111111111111111111111111111100 L
b001 Q
b010 R
b10 T
1V
1W
#255
0W
#260
1/
b010001110 E
b111111111111111111111111111111111111111111111111111111111111111111111111111111111111111111111111111111111111111111111111111111111111111111111100 G
b010 Q
b10 S
b01 T
1W
1Z
#265
0W
#270
b01 S
b00 T
1W
#275
0W
#280
b011 R
b00 S
b10 T
1U
1W
#285
0W
#290
1-
b011 Q
b10 S
b01 T
1W
1[
#295
0W
#300
b01 S
b00 T
1W
#305
0W
#310
b000 R
b00 S
0U
0V
1W
#315
0W
#320
0-
0/
b000 Q
b001 R
1W
0Z
0[
#325
0W
#330
b010001101 F
b111111111111111111111111111111111111111111111111111111111111111111111111111111111111111111111111111111111111111111111111111111111111111111111000 L
b001 Q
b010 R
b10 T
1V
1W
#335
0W
#340
1/
b010001101 E
b111111111111111111111111111111111111111111111111111111111111111111111111111111111111111111111111111111111111111111111111111111111111111111111000 G
b010 Q
b10 S
b01 T
1W
1Z
#345
0W
#350
b01 S
b00 T
1W
#355
0W
#360
b011 R
b00 S
b10 T
1U
1W
#365
0W
#370
1-
b011 Q
b10 S
b01 T
1W
1[
#375
0W
#380
b01 S
b00 T
1W
#385
0W
#390
b000 R
b00 S
0U
0V
1W
#395
0W
#400
0-
0/
b000 Q
b001 R
1W
0Z
0[
#405
0W
#410
b010001100 F
b111111111111111111111111111111111111111111111111111111111111111111111111111111111111111111111111111111111111111111111111111111111111111111110000 L
b001 Q
b010 R
b10 T
1V
1W
#415
0W
#420
1/
b010001100 E
b111111111111111111111111111111111111111111111111111111111111111111111111111111111111111111111111111111111111111111111111111111111111111111110000 G
b010 Q
b10 S
b01 T
1W
1Z
#425
0W
#430
b01 S
b00 T
1W
#435
0W
#440
b011 R
b00 S
b10 T
1U
1W
#445
0W
#450
1-
b011 Q
b10 S
b01 T
1W
1[
#455
0W
#460
b01 S
b00 T
1W
#465
0W
#470
b000 R
b00 S
0U
0V
1W
#475
0W
#480
0-
0/
b000 Q
b001 R
1W
0Z
0[
#485
0W
#490
b010001011 F
b111111111111111111111111111111111111111111111111111111111111111111111111111111111111111111111111111111111111111111111111111111111111111111100000 L
b001 Q
b010 R
b10 T
1V
1W
#495
0W
#500
1/
b010001011 E
b111111111111111111111111111111111111111111111111111111111111111111111111111111111111111111111111111111111111111111111111111111111111111111100000 G
b010 Q
b10 S
b01 T
1W
1Z
#505
0W
#510
b01 S
b00 T
1W
#515
0W
#520
b011 R
b00 S
b10 T
1U
1W
#525
0W
#530
1-
b011 Q
b10 S
b01 T
1W
1[
#535
0W
#540
b01 S
b00 T
1W
#545
0W
#550
b000 R
b00 S
0U
0V
1W
#555
0W
#560
0-
0/
b000 Q
b001 R
1W
0Z
0[
#565
0W
#570
b010001010 F
b111111111111111111111111111111111111111111111111111111111111111111111111111111111111111111111111111111111111111111111111111111111111111111000000 L
b001 Q
b010 R
b10 T
1V
1W
#575
0W
#580
1/
b010001010 E
b111111111111111111111111111111111111111111111111111111111111111111111111111111111111111111111111111111111111111111111111111111111111111111000000 G
b010 Q
b10 S
b01 T
1W
1Z
#585
0W
#590
b01 S
b00 T
1W
#595
0W
#600
b011 R
b00 S
b10 T
1U
1W
#605
0W
#610
1-
b011 Q
b10 S
b01 T
1W
1[
#615
0W
#620
b01 S
b00 T
1W
#625
0W
#630
b000 R
b00 S
0U
0V
1W
#635
0W
#640
0-
0/
b000 Q
b001 R
1W
0Z
0[
#645
0W
#650
b010001001 F
b111111111111111111111111111111111111111111111111111111111111111111111111111111111111111111111111111111111111111111111111111111111111111110000000 L
b001 Q
b010 R
b10 T
1V
1W
#655
0W
#660
1/
b010001001 E
b111111111111111111111111111111111111111111111111111111111111111111111111111111111111111111111111111111111111111111111111111111111111111110000000 G
b010 Q
b10 S
b01 T
1W
1Z
#665
0W
#670
b01 S
b00 T
1W
#675
0W
#680
b011 R
b00 S
b10 T
1U
1W
#685
0W
#690
1-
b011 Q
b10 S
b01 T
1W
1[
#695
0W
#700
b01 S
b00 T
1W
#705
0W
#710
b000 R
b00 S
0U
0V
1W
#715
0W
#720
0-
0/
b000 Q
b001 R
1W
0Z
0[
#725
0W
#730
b010001000 F
b111111111111111111111111111111111111111111111111111111111111111111111111111111111111111111111111111111111111111111111111111111111111111100000000 L
b001 Q
b010 R
b10 T
1V
1W
#735
0W
#740
1/
b010001000 E
b111111111111111111111111111111111111111111111111111111111111111111111111111111111111111111111111111111111111111111111111111111111111111100000000 G
b010 Q
b10 S
b01 T
1W
1Z
#745
0W
#750
b01 S
b00 T
1W
#755
0W
#760
b011 R
b00 S
b10 T
1U
1W
#765
0W
#770
1-
b011 Q
b10 S
b01 T
1W
1[
#775
0W
#780
b01 S
b00 T
1W
#785
0W
#790
b000 R
b00 S
0U
0V
1W
#795
0W
#800
0-
0/
b000 Q
b001 R
1W
0Z
0[
#805
0W
#810
b010000111 F
b111111111111111111111111111111111111111111111111111111111111111111111111111111111111111111111111111111111111111111111111111111111111111000000000 L
b001 Q
b010 R
b10 T
1V
1W
#815
0W
#820
1/
b010000111 E
b111111111111111111111111111111111111111111111111111111111111111111111111111111111111111111111111111111111111111111111111111111111111111000000000 G
b010 Q
b10 S
b01 T
1W
1Z
#825
0W
#830
b01 S
b00 T
1W
#835
0W
#840
b011 R
b00 S
b10 T
1U
1W
#845
0W
#850
1-
b011 Q
b10 S
b01 T
1W
1[
#855
0W
#860
b01 S
b00 T
1W
#865
0W
#870
b000 R
b00 S
0U
0V
1W
#875
0W
#880
0-
0/
b000 Q
b001 R
1W
0Z
0[
#885
0W
#890
b010000110 F
b111111111111111111111111111111111111111111111111111111111111111111111111111111111111111111111111111111111111111111111111111111111111110000000000 L
b001 Q
b010 R
b10 T
1V
1W
#895
0W
#900
1/
b010000110 E
b111111111111111111111111111111111111111111111111111111111111111111111111111111111111111111111111111111111111111111111111111111111111110000000000 G
b010 Q
b10 S
b01 T
1W
1Z
#905
0W
#910
b01 S
b00 T
1W
#915
0W
#920
b011 R
b00 S
b10 T
1U
1W
#925
0W
#930
1-
b011 Q
b10 S
b01 T
1W
1[
#935
0W
#940
b01 S
b00 T
1W
#945
0W
#950
b000 R
b00 S
0U
0V
1W
#955
0W
#960
0-
0/
b000 Q
b001 R
1W
0Z
0[
#965
0W
#970
b010000101 F
b111111111111111111111111111111111111111111111111111111111111111111111111111111111111111111111111111111111111111111111111111111111111100000000000 L
b001 Q
b010 R
b10 T
1V
1W
#975
0W
#980
1/
b010000101 E
b111111111111111111111111111111111111111111111111111111111111111111111111111111111111111111111111111111111111111111111111111111111111100000000000 G
b010 Q
b10 S
b01 T
1W
1Z
#985
0W
#990
b01 S
b00 T
1W
#995
0W
#1000
b011 R
b00 S
b10 T
1U
1W
#1005
0W
#1010
1-
b011 Q
b10 S
b01 T
1W
1[
#1015
0W
#1020
b01 S
b00 T
1W
#1025
0W
#1030
b000 R
b00 S
0U
0V
1W
#1035
0W
#1040
0-
0/
b000 Q
b001 R
1W
0Z
0[
#1045
0W
#1050
b010000100 F
b111111111111111111111111111111111111111111111111111111111111111111111111111111111111111111111111111111111111111111111111111111111111000000000000 L
b001 Q
b010 R
b10 T
1V
1W
#1055
0W
#1060
1/
b010000100 E
b111111111111111111111111111111111111111111111111111111111111111111111111111111111111111111111111111111111111111111111111111111111111000000000000 G
b010 Q
b10 S
b01 T
1W
1Z
#1065
0W
#1070
b01 S
b00 T
1W
#1075
0W
#1080
b011 R
b00 S
b10 T
1U
1W
#1085
0W
#1090
1-
b011 Q
b10 S
b01 T
1W
1[
#1095
0W
#1100
b01 S
b00 T
1W
#1105
0W
#1110
b000 R
b00 S
0U
0V
1W
#1115
0W
#1120
0-
0/
b000 Q
b001 R
1W
0Z
0[
#1125
0W
#1130
b010000011 F
b111111111111111111111111111111111111111111111111111111111111111111111111111111111111111111111111111111111111111111111111111111111110000000000000 L
b001 Q
b010 R
b10 T
1V
1W
#1135
0W
#1140
1/
b010000011 E
b111111111111111111111111111111111111111111111111111111111111111111111111111111111111111111111111111111111111111111111111111111111110000000000000 G
b010 Q
b10 S
b01 T
1W
1Z
#1145
0W
#1150
b01 S
b00 T
1W
#1155
0W
#1160
b011 R
b00 S
b10 T
1U
1W
#1165
0W
#1170
1-
b011 Q
b10 S
b01 T
1W
1[
#1175
0W
#1180
b01 S
b00 T
1W
#1185
0W
#1190
b000 R
b00 S
0U
0V
1W
#1195
0W
#1200
0-
0/
b000 Q
b001 R
1W
0Z
0[
#1205
0W
#1210
b010000010 F
b111111111111111111111111111111111111111111111111111111111111111111111111111111111111111111111111111111111111111111111111111111111100000000000000 L
b001 Q
b010 R
b10 T
1V
1W
#1215
0W
#1220
1/
b010000010 E
b111111111111111111111111111111111111111111111111111111111111111111111111111111111111111111111111111111111111111111111111111111111100000000000000 G
b010 Q
b10 S
b01 T
1W
1Z
#1225
0W
#1230
b01 S
b00 T
1W
#1235
0W
#1240
b011 R
b00 S
b10 T
1U
1W
#1245
0W
#1250
1-
b011 Q
b10 S
b01 T
1W
1[
#1255
0W
#1260
b01 S
b00 T
1W
#1265
0W
#1270
b000 R
b00 S
0U
0V
1W
#1275
0W
#1280
0-
0/
b000 Q
b001 R
1W
0Z
0[
#1285
0W
#1290
b010000001 F
b111111111111111111111111111111111111111111111111111111111111111111111111111111111111111111111111111111111111111111111111111111111000000000000000 L
b001 Q
b010 R
b10 T
1V
1W
#1295
0W
#1300
1/
b010000001 E
b111111111111111111111111111111111111111111111111111111111111111111111111111111111111111111111111111111111111111111111111111111111000000000000000 G
b010 Q
b10 S
b01 T
1W
1Z
#1305
0W
#1310
b01 S
b00 T
1W
#1315
0W
#1320
b011 R
b00 S
b10 T
1U
1W
#1325
0W
#1330
1-
b011 Q
b10 S
b01 T
1W
1[
#1335
0W
#1340
b01 S
b00 T
1W
#1345
0W
#1350
b000 R
b00 S
0U
0V
1W
#1355
0W
#1360
0-
0/
b000 Q
b001 R
1W
0Z
0[
#1365
0W
#1370
b010000000 F
b111111111111111111111111111111111111111111111111111111111111111111111111111111111111111111111111111111111111111111111111111111110000000000000000 L
b001 Q
b010 R
b10 T
1V
1W
#1375
0W
#1380
1/
b010000000 E
b111111111111111111111111111111111111111111111111111111111111111111111111111111111111111111111111111111111111111111111111111111110000000000000000 G
b010 Q
b10 S
b01 T
1W
1Z
#1385
0W
#1390
b01 S
b00 T
1W
#1395
0W
#1400
b011 R
b00 S
b10 T
1U
1W
#1405
0W
#1410
1-
b011 Q
b10 S
b01 T
1W
1[
#1415
0W
#1420
b01 S
b00 T
1W
#1425
0W
#1430
b000 R
b00 S
0U
0V
1W
#1435
0W
#1440
0-
0/
b000 Q
b001 R
1W
0Z
0[
#1445
0W
#1450
b001111111 F
b111111111111111111111111111111111111111111111111111111111111111111111111111111111111111111111111111111111111111111111111111111100000000000000000 L
b001 Q
b010 R
b10 T
1V
1W
#1455
0W
#1460
1/
b001111111 E
b111111111111111111111111111111111111111111111111111111111111111111111111111111111111111111111111111111111111111111111111111111100000000000000000 G
b010 Q
b10 S
b01 T
1W
1Z
#1465
0W
#1470
b01 S
b00 T
1W
#1475
0W
#1480
b011 R
b00 S
b10 T
1U
1W
#1485
0W
#1490
1-
b011 Q
b10 S
b01 T
1W
1[
#1495
0W
#1500
b01 S
b00 T
1W
#1505
0W
#1510
b000 R
b00 S
0U
0V
1W
#1515
0W
#1520
0-
0/
b000 Q
b001 R
1W
0Z
0[
#1525
0W
#1530
b001111110 F
b111111111111111111111111111111111111111111111111111111111111111111111111111111111111111111111111111111111111111111111111111111000000000000000000 L
b001 Q
b010 R
b10 T
1V
1W
#1535
0W
#1540
1/
b001111110 E
b111111111111111111111111111111111111111111111111111111111111111111111111111111111111111111111111111111111111111111111111111111000000000000000000 G
b010 Q
b10 S
b01 T
1W
1Z
#1545
0W
#1550
b01 S
b00 T
1W
#1555
0W
#1560
b011 R
b00 S
b10 T
1U
1W
#1565
0W
#1570
1-
b011 Q
b10 S
b01 T
1W
1[
#1575
0W
#1580
b01 S
b00 T
1W
#1585
0W
#1590
b000 R
b00 S
0U
0V
1W
#1595
0W
#1600
0-
0/
b000 Q
b001 R
1W
0Z
0[
#1605
0W
#1610
b001111101 F
b111111111111111111111111111111111111111111111111111111111111111111111111111111111111111111111111111111111111111111111111111110000000000000000000 L
b001 Q
b010 R
b10 T
1V
1W
#1615
0W
#1620
1/
b001111101 E
b111111111111111111111111111111111111111111111111111111111111111111111111111111111111111111111111111111111111111111111111111110000000000000000000 G
b010 Q
b10 S
b01 T
1W
1Z
#1625
0W
#1630
b01 S
b00 T
1W
#1635
0W
#1640
b011 R
b00 S
b10 T
1U
1W
#1645
0W
#1650
1-
b011 Q
b10 S
b01 T
1W
1[
#1655
0W
#1660
b01 S
b00 T
1W
#1665
0W
#1670
b000 R
b00 S
0U
0V
1W
#1675
0W
#1680
0-
0/
b000 Q
b001 R
1W
0Z
0[
#1685
0W
#1690
b001111100 F
b111111111111111111111111111111111111111111111111111111111111111111111111111111111111111111111111111111111111111111111111111100000000000000000000 L
b001 Q
b010 R
b10 T
1V
1W
#1695
0W
#1700
1/
b001111100 E
b111111111111111111111111111111111111111111111111111111111111111111111111111111111111111111111111111111111111111111111111111100000000000000000000 G
b010 Q
b10 S
b01 T
1W
1Z
#1705
0W
#1710
b01 S
b00 T
1W
#1715
0W
#1720
b011 R
b00 S
b10 T
1U
1W
#1725
0W
#1730
1-
b011 Q
b10 S
b01 T
1W
1[
#1735
0W
#1740
b01 S
b00 T
1W
#1745
0W
#1750
b000 R
b00 S
0U
0V
1W
#1755
0W
#1760
0-
0/
b000 Q
b001 R
1W
0Z
0[
#1765
0W
#1770
b001111011 F
b111111111111111111111111111111111111111111111111111111111111111111111111111111111111111111111111111111111111111111111111111000000000000000000000 L
b001 Q
b010 R
b10 T
1V
1W
#1775
0W
#1780
1/
b001111011 E
b111111111111111111111111111111111111111111111111111111111111111111111111111111111111111111111111111111111111111111111111111000000000000000000000 G
b010 Q
b10 S
b01 T
1W
1Z
#1785
0W
#1790
b01 S
b00 T
1W
#1795
0W
#1800
b011 R
b00 S
b10 T
1U
1W
#1805
0W
#1810
1-
b011 Q
b10 S
b01 T
1W
1[
#1815
0W
#1820
b01 S
b00 T
1W
#1825
0W
#1830
b000 R
b00 S
0U
0V
1W
#1835
0W
#1840
0-
0/
b000 Q
b001 R
1W
0Z
0[
#1845
0W
#1850
b001111010 F
b111111111111111111111111111111111111111111111111111111111111111111111111111111111111111111111111111111111111111111111111110000000000000000000000 L
b001 Q
b010 R
b10 T
1V
1W
#1855
0W
#1860
1/
b001111010 E
b111111111111111111111111111111111111111111111111111111111111111111111111111111111111111111111111111111111111111111111111110000000000000000000000 G
b010 Q
b10 S
b01 T
1W
1Z
#1865
0W
#1870
b01 S
b00 T
1W
#1875
0W
#1880
b011 R
b00 S
b10 T
1U
1W
#1885
0W
#1890
1-
b011 Q
b10 S
b01 T
1W
1[
#1895
0W
#1900
b01 S
b00 T
1W
#1905
0W
#1910
b000 R
b00 S
0U
0V
1W
#1915
0W
#1920
0-
0/
b000 Q
b001 R
1W
0Z
0[
#1925
0W
#1930
b001111001 F
b111111111111111111111111111111111111111111111111111111111111111111111111111111111111111111111111111111111111111111111111100000000000000000000000 L
b001 Q
b010 R
b10 T
1V
1W
#1935
0W
#1940
1/
b001111001 E
b111111111111111111111111111111111111111111111111111111111111111111111111111111111111111111111111111111111111111111111111100000000000000000000000 G
b010 Q
b10 S
b01 T
1W
1Z
#1945
0W
#1950
b01 S
b00 T
1W
#1955
0W
#1960
b011 R
b00 S
b10 T
1U
1W
#1965
0W
#1970
1-
b011 Q
b10 S
b01 T
1W
1[
#1975
0W
#1980
b01 S
b00 T
1W
#1985
0W
#1990
b000 R
b00 S
0U
0V
1W
#1995
0W
#2000
0-
0/
b000 Q
b001 R
1W
0Z
0[
#2005
0W
#2010
b001111000 F
b111111111111111111111111111111111111111111111111111111111111111111111111111111111111111111111111111111111111111111111111000000000000000000000000 L
b001 Q
b010 R
b10 T
1V
1W
#2015
0W
#2020
1/
b001111000 E
b111111111111111111111111111111111111111111111111111111111111111111111111111111111111111111111111111111111111111111111111000000000000000000000000 G
b010 Q
b10 S
b01 T
1W
1Z
#2025
0W
#2030
b01 S
b00 T
1W
#2035
0W
#2040
b011 R
b00 S
b10 T
1U
1W
#2045
0W
#2050
1-
b011 Q
b10 S
b01 T
1W
1[
#2055
0W
#2060
b01 S
b00 T
1W
#2065
0W
#2070
b000 R
b00 S
0U
0V
1W
#2075
0W
#2080
0-
0/
b000 Q
b001 R
1W
0Z
0[
#2085
0W
#2090
b001110111 F
b111111111111111111111111111111111111111111111111111111111111111111111111111111111111111111111111111111111111111111111110000000000000000000000000 L
b001 Q
b010 R
b10 T
1V
1W
#2095
0W
#2100
1/
b001110111 E
b111111111111111111111111111111111111111111111111111111111111111111111111111111111111111111111111111111111111111111111110000000000000000000000000 G
b010 Q
b10 S
b01 T
1W
1Z
#2105
0W
#2110
b01 S
b00 T
1W
#2115
0W
#2120
b011 R
b00 S
b10 T
1U
1W
#2125
0W
#2130
1-
b011 Q
b10 S
b01 T
1W
1[
#2135
0W
#2140
b01 S
b00 T
1W
#2145
0W
#2150
b000 R
b00 S
0U
0V
1W
#2155
0W
#2160
0-
0/
b000 Q
b001 R
1W
0Z
0[
#2165
0W
#2170
b001110110 F
b111111111111111111111111111111111111111111111111111111111111111111111111111111111111111111111111111111111111111111111100000000000000000000000000 L
b001 Q
b010 R
b10 T
1V
1W
#2175
0W
#2180
1/
b001110110 E
b111111111111111111111111111111111111111111111111111111111111111111111111111111111111111111111111111111111111111111111100000000000000000000000000 G
b010 Q
b10 S
b01 T
1W
1Z
#2185
0W
#2190
b01 S
b00 T
1W
#2195
0W
#2200
b011 R
b00 S
b10 T
1U
1W
#2205
0W
#2210
1-
b011 Q
b10 S
b01 T
1W
1[
#2215
0W
#2220
b01 S
b00 T
1W
#2225
0W
#2230
b000 R
b00 S
0U
0V
1W
#2235
0W
#2240
0-
0/
b000 Q
b001 R
1W
0Z
0[
#2245
0W
#2250
b001110101 F
b111111111111111111111111111111111111111111111111111111111111111111111111111111111111111111111111111111111111111111111000000000000000000000000000 L
b001 Q
b010 R
b10 T
1V
1W
#2255
0W
#2260
1/
b001110101 E
b111111111111111111111111111111111111111111111111111111111111111111111111111111111111111111111111111111111111111111111000000000000000000000000000 G
b010 Q
b10 S
b01 T
1W
1Z
#2265
0W
#2270
b01 S
b00 T
1W
#2275
0W
#2280
b011 R
b00 S
b10 T
1U
1W
#2285
0W
#2290
1-
b011 Q
b10 S
b01 T
1W
1[
#2295
0W
#2300
b01 S
b00 T
1W
#2305
0W
#2310
b000 R
b00 S
0U
0V
1W
#2315
0W
#2320
0-
0/
b000 Q
b001 R
1W
0Z
0[
#2325
0W
#2330
b001110100 F
b111111111111111111111111111111111111111111111111111111111111111111111111111111111111111111111111111111111111111111110000000000000000000000000000 L
b001 Q
b010 R
b10 T
1V
1W
#2335
0W
#2340
1/
b001110100 E
b111111111111111111111111111111111111111111111111111111111111111111111111111111111111111111111111111111111111111111110000000000000000000000000000 G
b010 Q
b10 S
b01 T
1W
1Z
#2345
0W
#2350
b01 S
b00 T
1W
#2355
0W
#2360
b011 R
b00 S
b10 T
1U
1W
#2365
0W
#2370
1-
b011 Q
b10 S
b01 T
1W
1[
#2375
0W
#2380
b01 S
b00 T
1W
#2385
0W
#2390
b000 R
b00 S
0U
0V
1W
#2395
0W
#2400
0-
0/
b000 Q
b001 R
1W
0Z
0[
#2405
0W
#2410
b001110011 F
b111111111111111111111111111111111111111111111111111111111111111111111111111111111111111111111111111111111111111111100000000000000000000000000000 L
b001 Q
b010 R
b10 T
1V
1W
#2415
0W
#2420
1/
b001110011 E
b111111111111111111111111111111111111111111111111111111111111111111111111111111111111111111111111111111111111111111100000000000000000000000000000 G
b010 Q
b10 S
b01 T
1W
1Z
#2425
0W
#2430
b01 S
b00 T
1W
#2435
0W
#2440
b011 R
b00 S
b10 T
1U
1W
#2445
0W
#2450
1-
b011 Q
b10 S
b01 T
1W
1[
#2455
0W
#2460
b01 S
b00 T
1W
#2465
0W
#2470
b000 R
b00 S
0U
0V
1W
#2475
0W
#2480
0-
0/
b000 Q
b001 R
1W
0Z
0[
#2485
0W
#2490
b001110010 F
b111111111111111111111111111111111111111111111111111111111111111111111111111111111111111111111111111111111111111111000000000000000000000000000000 L
b001 Q
b010 R
b10 T
1V
1W
#2495
0W
#2500
1/
b001110010 E
b111111111111111111111111111111111111111111111111111111111111111111111111111111111111111111111111111111111111111111000000000000000000000000000000 G
b010 Q
b10 S
b01 T
1W
1Z
#2505
0W
#2510
b01 S
b00 T
1W
#2515
0W
#2520
b011 R
b00 S
b10 T
1U
1W
#2525
0W
#2530
1-
b011 Q
b10 S
b01 T
1W
1[
#2535
0W
#2540
b01 S
b00 T
1W
#2545
0W
#2550
b000 R
b00 S
0U
0V
1W
#2555
0W
#2560
0-
0/
b000 Q
b001 R
1W
0Z
0[
#2565
0W
#2570
b001110001 F
b111111111111111111111111111111111111111111111111111111111111111111111111111111111111111111111111111111111111111110000000000000000000000000000000 L
b001 Q
b010 R
b10 T
1V
1W
#2575
0W
#2580
1/
b001110001 E
b111111111111111111111111111111111111111111111111111111111111111111111111111111111111111111111111111111111111111110000000000000000000000000000000 G
b010 Q
b10 S
b01 T
1W
1Z
#2585
0W
#2590
b01 S
b00 T
1W
#2595
0W
#2600
b011 R
b00 S
b10 T
1U
1W
#2605
0W
#2610
1-
b011 Q
b10 S
b01 T
1W
1[
#2615
0W
#2620
b01 S
b00 T
1W
#2625
0W
#2630
b000 R
b00 S
0U
0V
1W
#2635
0W
#2640
0-
0/
b000 Q
b001 R
1W
0Z
0[
#2645
0W
#2650
b001110000 F
b111111111111111111111111111111111111111111111111111111111111111111111111111111111111111111111111111111111111111100000000000000000000000000000000 L
b001 Q
b010 R
b10 T
1V
1W
#2655
0W
#2660
1/
b001110000 E
b111111111111111111111111111111111111111111111111111111111111111111111111111111111111111111111111111111111111111100000000000000000000000000000000 G
b010 Q
b10 S
b01 T
1W
1Z
#2665
0W
#2670
b01 S
b00 T
1W
#2675
0W
#2680
b011 R
b00 S
b10 T
1U
1W
#2685
0W
#2690
1-
b011 Q
b10 S
b01 T
1W
1[
#2695
0W
#2700
b01 S
b00 T
1W
#2705
0W
#2710
b000 R
b00 S
0U
0V
1W
#2715
0W
#2720
0-
0/
b000 Q
b001 R
1W
0Z
0[
#2725
0W
#2730
b001101111 F
b111111111111111111111111111111111111111111111111111111111111111111111111111111111111111111111111111111111111111000000000000000000000000000000000 L
b001 Q
b010 R
b10 T
1V
1W
#2735
0W
#2740
1/
b001101111 E
b111111111111111111111111111111111111111111111111111111111111111111111111111111111111111111111111111111111111111000000000000000000000000000000000 G
b010 Q
b10 S
b01 T
1W
1Z
#2745
0W
#2750
b01 S
b00 T
1W
#2755
0W
#2760
b011 R
b00 S
b10 T
1U
1W
#2765
0W
#2770
1-
b011 Q
b10 S
b01 T
1W
1[
#2775
0W
#2780
b01 S
b00 T
1W
#2785
0W
#2790
b000 R
b00 S
0U
0V
1W
